InstrMem/graph.vcd
$date
  Fri May  1 00:59:13 2015
$end
$version
  GHDL v0
$end
$timescale
  1 fs
$end
$var reg 1 ! clock $end
$var reg 1 " write $end
$var reg 1 # read $end
$var reg 16 $ address[15:0] $end
$var reg 16 % data_in[15:0] $end
$var reg 16 & data_out_1[15:0] $end
$var reg 16 ' data_out_2[15:0] $end
$scope module dut $end
$var reg 1 ( clock $end
$var reg 1 ) write $end
$var reg 1 * read $end
$var reg 16 + address[15:0] $end
$var reg 16 , data_in[15:0] $end
$var reg 16 - data_out_1[15:0] $end
$var reg 16 . data_out_2[15:0] $end
$comment mem is not handled $end
$upscope $end
$enddefinitions $end
#0
0!
0"
0#
b0000000000000000 $
b0000000000000000 %
bUUUUUUUUUUUUUUUU &
bUUUUUUUUUUUUUUUU '
0(
0)
0*
b0000000000000000 +
b0000000000000000 ,
bUUUUUUUUUUUUUUUU -
bUUUUUUUUUUUUUUUU .
#5000000
1!
bZZZZZZZZZZZZZZZZ &
bZZZZZZZZZZZZZZZZ '
1(
bZZZZZZZZZZZZZZZZ -
bZZZZZZZZZZZZZZZZ .
#10000000
0!
1"
b1000111100010100 $
b0000000100000000 %
0(
1)
b1000111100010100 +
b0000000100000000 ,
#15000000
1!
1(
#20000000
0!
b1000111100010101 $
b0000000100000001 %
0(
b1000111100010101 +
b0000000100000001 ,
#25000000
1!
1(
#30000000
0!
b0110100100001010 $
b1010101111001101 %
0(
b0110100100001010 +
b1010101111001101 ,
#35000000
1!
1(
#40000000
0!
b0110100100001011 $
b0001001000110100 %
0(
b0110100100001011 +
b0001001000110100 ,
#45000000
1!
1(
#50000000
0!
b0000000000000000 $
b0001000000010000 %
0(
b0000000000000000 +
b0001000000010000 ,
#55000000
1!
1(
#60000000
0!
b0000000000000001 $
b1110111100000000 %
0(
b0000000000000001 +
b1110111100000000 ,
#65000000
1!
1(
#70000000
0!
0"
0(
0)
#75000000
1!
1(
#80000000
0!
0(
#85000000
1!
1(
#90000000
0!
1#
b0000000000000000 $
0(
1*
b0000000000000000 +
#95000000
1!
b0001000000010000 &
b1110111100000000 '
1(
b0001000000010000 -
b1110111100000000 .
#100000000
0!
b1000111100010100 $
0(
b1000111100010100 +
#105000000
1!
b0000000100000000 &
b0000000100000001 '
1(
b0000000100000000 -
b0000000100000001 .
#110000000
0!
b0110100100001010 $
0(
b0110100100001010 +
#115000000
1!
b1010101111001101 &
b0001001000110100 '
1(
b1010101111001101 -
b0001001000110100 .
#120000000
0!
0#
0(
0*
#125000000
1!
bZZZZZZZZZZZZZZZZ &
bZZZZZZZZZZZZZZZZ '
1(
bZZZZZZZZZZZZZZZZ -
bZZZZZZZZZZZZZZZZ .
#130000000
0!
b0000000000000000 $
b0000000000000000 %
0(
b0000000000000000 +
b0000000000000000 ,
#135000000
1!
1(
#140000000
0!
1"
b1000111100010100 $
b0000000100000000 %
0(
1)
b1000111100010100 +
b0000000100000000 ,
#145000000
1!
1(
#150000000
0!
b1000111100010101 $
b0000000100000001 %
0(
b1000111100010101 +
b0000000100000001 ,
#155000000
1!
1(
#160000000
0!
b0110100100001010 $
b1010101111001101 %
0(
b0110100100001010 +
b1010101111001101 ,
#165000000
1!
1(
#170000000
0!
b0110100100001011 $
b0001001000110100 %
0(
b0110100100001011 +
b0001001000110100 ,
#175000000
1!
1(
#180000000
0!
b0000000000000000 $
b0001000000010000 %
0(
b0000000000000000 +
b0001000000010000 ,
#185000000
1!
1(
#190000000
0!
b0000000000000001 $
b1110111100000000 %
0(
b0000000000000001 +
b1110111100000000 ,
#195000000
1!
1(
#200000000
0!
0"
0(
0)
#205000000
1!
1(
#210000000
0!
0(
#215000000
1!
1(
#220000000
0!
1#
b0000000000000000 $
0(
1*
b0000000000000000 +
#225000000
1!
b0001000000010000 &
b1110111100000000 '
1(
b0001000000010000 -
b1110111100000000 .
#230000000
0!
b1000111100010100 $
0(
b1000111100010100 +
#235000000
1!
b0000000100000000 &
b0000000100000001 '
1(
b0000000100000000 -
b0000000100000001 .
#240000000
0!
b0110100100001010 $
0(
b0110100100001010 +
#245000000
1!
b1010101111001101 &
b0001001000110100 '
1(
b1010101111001101 -
b0001001000110100 .
#250000000
0!
0#
0(
0*
