Renamer/graph.vcd
$date
  Sat May  2 18:38:59 2015
$end
$version
  GHDL v0
$end
$timescale
  1 fs
$end
$var reg 1 ! clock $end
$var reg 1 " reset $end
$var reg 1 # tag_out_en $end
$var reg 1 $ rob_finish $end
$var reg 1 % no_tag_left $end
$var reg 3 & dest_address[2:0] $end
$var reg 3 ' tag_out[2:0] $end
$var reg 3 ( tag_rob_in[2:0] $end
$scope module dut $end
$var reg 1 ) clock $end
$var reg 1 * reset $end
$var reg 3 + dest_address[2:0] $end
$var reg 3 , tag_out[2:0] $end
$var reg 1 - tag_out_en $end
$var reg 3 . tag_rob_in[2:0] $end
$var reg 1 / rob_finish $end
$var reg 1 0 no_tag_left $end
$upscope $end
$enddefinitions $end
#0
0!
1"
U#
0$
U%
b000 &
bUUU '
b000 (
0)
1*
b000 +
bUUU ,
U-
b000 .
0/
U0
#5000000
1!
0#
0%
b000 '
1)
b000 ,
0-
00
#10000000
0!
0"
0)
0*
#15000000
1!
1#
1)
1-
#20000000
0!
b010 &
0)
b010 +
#25000000
1!
1)
#30000000
0!
b110 &
0)
b110 +
#35000000
1!
1)
#40000000
0!
b001 &
0)
b001 +
#45000000
1!
1)
#50000000
0!
b111 &
0)
b111 +
#55000000
1!
1)
#60000000
0!
b100 &
0)
b100 +
#65000000
1!
1)
#70000000
0!
b011 &
0)
b011 +
#75000000
1!
1)
#80000000
0!
b101 &
0)
b101 +
#85000000
1!
1)
#90000000
0!
b110 &
0)
b110 +
#95000000
1!
1)
#100000000
0!
1$
b010 &
b111 (
0)
b010 +
b111 .
1/
#105000000
1!
1)
#110000000
0!
0$
0)
0/
#115000000
1!
1)
#120000000
0!
1$
0)
1/
#125000000
1!
1)
#130000000
0!
0)
#135000000
1!
1)
#140000000
0!
0)
#145000000
1!
1)
#150000000
0!
0)
#155000000
1!
1)
#160000000
0!
0)
#165000000
1!
1)
#170000000
0!
0)
#175000000
1!
1)
#180000000
0!
1"
0$
b000 &
b000 (
0)
1*
b000 +
b000 .
0/
#185000000
1!
0#
1)
0-
#190000000
0!
0"
0)
0*
#195000000
1!
1#
1)
1-
#200000000
0!
b010 &
0)
b010 +
#205000000
1!
1)
#210000000
0!
b110 &
0)
b110 +
#215000000
1!
1)
#220000000
0!
b001 &
0)
b001 +
#225000000
1!
1)
#230000000
0!
b111 &
0)
b111 +
#235000000
1!
1)
#240000000
0!
b100 &
0)
b100 +
#245000000
1!
1)
#250000000
0!
b011 &
0)
b011 +
